﻿{PokemonType}
{00;v1.0;Debug}
{01;Null;#61A48E}
{02;Normal;#A8A878}
{03;Fire;#F08030}
{04;Water;#6890F0}
{05;Ice;#98D8D8}
{06;Fighting;#C03028}
{07;Grass;#78C850}
{08;Poison;#A040A0}
{09;Electric;#F8D030}
{10;Ground;#E0C068}
{11;Flying;#A890F0}
{12;Psychic;#F85888}
{13;Rock;#B8A038}
{14;Bug;#A8B820}
{15;Ghost;#705898}
{16;Dragon;#7038F8}
{17;Dark;#705848}
{18;Steel;#B8B8D0}
{19;Fairy;#FF99CC}